Cyclistic Bike Share Analysis
…
Insight: Members took
more rides than casual riders on every day of the week. Casual rider
activity increased substantially on weekends, especially Saturday, while
members maintained relatively high usage throughout the week. This
suggests that members use bikes more regularly, whereas casual riders
are more likely to ride for leisure purposes.

4. Monthly Ride Trends (2025)

## # A tibble: 24 × 3
##    month member_casual      n
##    <ord> <chr>          <int>
##  1 Jan   casual         24124
##  2 Jan   member        114527
##  3 Feb   casual         27757
##  4 Feb   member        124144
##  5 Mar   casual         85862
##  6 Mar   member        212268
##  7 Apr   casual        109239
##  8 Apr   member        262137
##  9 May   casual        182770
## 10 May   member        319845
## # ℹ 14 more rows
…
Insight: Members took
more rides than casual riders throughout 2025. Both groups exhibited
clear seasonal patterns, with ride counts increasing from spring and
peaking during July and August before declining in winter. Casual riders
showed greater seasonal variation, suggesting that they primarily use
bikes for leisure and recreational purposes. The summer months present
an ideal opportunity for targeted membership marketing
campaigns.

5.Hourly Ride Usage

## # A tibble: 48 × 4
##     hour member_casual      n hour_label
##    <int> <chr>          <int> <fct>     
##  1    17 member        517715 5 PM      
##  2    16 member        456467 4 PM      
##  3    18 member        397052 6 PM      
##  4     8 member        350336 8 AM      
##  5    15 member        322218 3 PM      
##  6    19 member        272695 7 PM      
##  7     7 member        269375 7 AM      
##  8    12 member        255465 12 PM     
##  9    14 member        254989 2 PM      
## 10    13 member        250520 1 PM      
## # ℹ 38 more rows
…
